id,flight_name,flight_number,flight_source,flight_destination,flight_departure_date,flight_departure_time,flight_arrival_time,return_flight_source,return_flight_destination,return_flight_name,return_flight_number,return_departure_date,return_departure_time,return_arrival_time,flight_price,flight_pnr_no,flight_pnr_no2,flight_via,sold,seat
,GoAir,484,Ahmedabad(AMD),Dharamsala(DHM),26-02-2018,05:15,06:30,Dharamsala(DHM),Ahmedabad(AMD),GoAir,483,04-03-2018,00:35,04:35,18900,0,0,,0,0
,GoAir,484,Ahmedabad(AMD),Dharamsala(DHM),27-02-2018,05:15,06:30,Dharamsala(DHM),Ahmedabad(AMD),GoAir,483,05-03-2018,00:35,04:35,18900,0,0,,0,0
,GoAir,484,Ahmedabad(AMD),Dharamsala(DHM),01-03-2018,05:15,06:30,Dharamsala(DHM),Ahmedabad(AMD),GoAir,483,07-03-2018,00:35,04:35,18900,0,0,,0,0
,GoAir,438,Ahmedabad(AMD),Dharamsala(DHM),16-02-2018,03:15,05:15,Dharamsala(DHM),Ahmedabad(AMD),GoAir,437,22-02-2018,22:20,02:30,16500,0,0,,0,0
,GoAir,438,Ahmedabad(AMD),Dharamsala(DHM),23-02-2018,03:15,05:15,Dharamsala(DHM),Ahmedabad(AMD),GoAir,437,01-03-2018,22:20,02:30,22500,0,0,,0,8
