flight_name,flight_number,flight_source,flight_destination,flight_departure,flight_departure_time,flight_arrival,flight_price,flight_pnr_no,flight_via,sold,seat
SpiceJet,1625,Ahmedabad(AMD),Agartala(IXA),20-02-2018,14:54,16:38:30,20000,1478552,NULL,0,100
SpiceJet,12625,Banglore(BLR),Agartala(IXA),20-02-2018,14:54,16:38:30,20000,1478552,NULL,0,100
