id,flight_name,flight_number,flight_source,flight_destination,flight_departure_date,flight_departure_time,flight_arrival_time,return_flight_source,return_flight_destination,return_flight_name,return_flight_number,return_departure_date,return_departure_time,return_arrival_time,flight_price,flight_pnr_no,flight_pnr_no2,flight_via,sold,seat
,,,Delhi(DEL),Goa(GOI),14-02-2018,,,Goa(GOI),Delhi(DEL),,,18-02-2018,,,10500,,,,,
,GoAir,286,Delhi(DEL),Goa(GOI),11-02-2018,10:40,13:35,Goa(GOI),Delhi(DEL),GoAir,285,15-02-2018,17:30,20:15,11500,,,,,
,GoAir,286,Delhi(DEL),Goa(GOI),14-02-2018,10:40,13:35,Goa(GOI),Delhi(DEL),GoAir,285,17-02-2018,17:30,20:15,12000,,,,,
,GoAir,286,Delhi(DEL),Goa(GOI),14-02-2018,10:40,13:35,Goa(GOI),Delhi(DEL),GoAir,285,18-02-2018,17:30,20:15,11000,,,,,
,GoAir,286,Delhi(DEL),Goa(GOI),16-02-2018,10:40,13:35,Goa(GOI),Delhi(DEL),GoAir,285,19-02-2018,17:30,20:15,12000,,,,,
,GoAir,286,Delhi(DEL),Goa(GOI),17-02-2018,10:40,13:35,Goa(GOI),Delhi(DEL),GoAir,285,20-02-2018,17:30,20:15,12000,,,,,
,GoAir,286,Delhi(DEL),Goa(GOI),22-02-2018,10:40,13:35,Goa(GOI),Delhi(DEL),GoAir,285,26-02-2018,17:30,20:15,11500,,,,,
,GoAir,286,Delhi(DEL),Goa(GOI),23-02-2018,10:40,13:35,Goa(GOI),Delhi(DEL),GoAir,285,27-02-2018,17:30,20:15,11500,,,,,
,GoAir,286,Delhi(DEL),Goa(GOI),24-02-2018,10:40,13:35,Goa(GOI),Delhi(DEL),GoAir,285,27-02-2018,17:30,20:15,11000,,,,,
,GoAir,286,Delhi(DEL),Goa(GOI),02-03-2018,10:40,13:35,Goa(GOI),Delhi(DEL),GoAir,285,05-03-2018,17:30,20:15,11500,,,,,
,GoAir,286,Delhi(DEL),Goa(GOI),03-03-2018,10:40,13:35,Goa(GOI),Delhi(DEL),GoAir,285,06-03-2018,17:30,20:15,11000,,,,,
,GoAir,286,Delhi(DEL),Goa(GOI),09-03-2018,10:40,13:35,Goa(GOI),Delhi(DEL),GoAir,285,12-03-2018,17:30,20:15,11000,,,,,
,GoAir,286,Delhi(DEL),Goa(GOI),24-03-2018,10:40,13:35,Goa(GOI),Delhi(DEL),GoAir,285,27-03-2018,17:30,20:15,11000,,,,,
,GoAir,286,Delhi(DEL),Goa(GOI),25-03-2018,10:40,13:35,Goa(GOI),Delhi(DEL),GoAir,285,28-03-2018,17:30,20:15,13000,,,,,
,GoAir,286,Delhi(DEL),Goa(GOI),26-03-2018,10:40,13:35,Goa(GOI),Delhi(DEL),GoAir,285,29-03-2018,17:30,20:15,11000,,,,,
,GoAir,286,Delhi(DEL),Goa(GOI),27-03-2018,10:40,13:35,Goa(GOI),Delhi(DEL),GoAir,285,31-03-2018,17:30,20:15,13000,,,,,
,GoAir,286,Delhi(DEL),Goa(GOI),28-03-2018,10:40,13:35,Goa(GOI),Delhi(DEL),GoAir,285,31-03-2018,17:30,20:15,13000,,,,,
,GoAir,286,Delhi(DEL),Goa(GOI),28-03-2018,10:40,13:35,Goa(GOI),Delhi(DEL),GoAir,285,01-04-2018,17:30,20:15,13000,,,,,
,GoAir,286,Delhi(DEL),Goa(GOI),29-03-2018,10:40,13:35,Goa(GOI),Delhi(DEL),GoAir,285,01-04-2018,17:30,20:15,11500,,,,,
,IndiGo,3473,Delhi(DEL),Goa(GOI),01-03-2018,14:25,17:05,Goa(GOI),Delhi(DEL),IndiGo,336,04-03-2018,22:00,00:40,11500,,,,,
,SpiceJet,171,Delhi(DEL),Goa(GOI),01-03-2018,11:25,14:05,Goa(GOI),Delhi(DEL),SpiceJet,145,04-03-2018,20:00,22:45,12500,,,,,
,IndiGo,329,Delhi(DEL),Goa(GOI),29-03-2018,10:40,13:40,Goa(GOI),Delhi(DEL),IndiGo,332,01-04-2018,14:10,16:55,13000,,,,,
,Vistara,847,Delhi(DEL),Goa(GOI),29-03-2018,11:10,13:45,Goa(GOI),Delhi(DEL),Vistara,884,02-04-2018,14:15,17:05,13500,,,,,
,GoAir,286,Delhi(DEL),Goa(GOI),30-03-2018,10:40,13:35,Goa(GOI),Delhi(DEL),GoAir,285,02-04-2018,17:30,20:15,13000,,,,,
,GoAir,286,Delhi(DEL),Goa(GOI),31-03-2018,10:40,13:35,Goa(GOI),Delhi(DEL),GoAir,285,01-04-2018,17:30,20:15,11500,,,,,
,IndiGo,161,Delhi(DEL),Goa(GOI),12-08-2018,11:55,14:55,Goa(GOI),Delhi(DEL),IndiGo,724,15-08-2018,17:45,20:30,13000,,,,,
,IndiGo,161,Delhi(DEL),Goa(GOI),15-08-2018,11:55,14:55,Goa(GOI),Delhi(DEL),IndiGo,724,19-08-2018,17:45,20:30,13000,,,,,
,IndiGo,329,Delhi(DEL),Goa(GOI),18-10-2018,10:40,13:40,Goa(GOI),Delhi(DEL),IndiGo,6386,21-10-2018,18:20,21:15,14000,,,,,
,IndiGo,329,Delhi(DEL),Goa(GOI),18-10-2018,10:40,13:40,Goa(GOI),Delhi(DEL),IndiGo,6386,21-10-2018,18:20,21:15,14000,,,,,
,GoAir,286,Delhi(DEL),Goa(GOI),14-02-2018,10:40,13:35,Goa(GOI),Delhi(DEL),GoAir,285,18-02-2018,17:30,20:15,10000,,,,,
,IndiGo,329,Delhi(DEL),Goa(GOI),14-02-2018,10:50,13:40,Goa(GOI),Delhi(DEL),IndiGo,4386,18-02-2018,18:20,21:15,11500,,,,,10
,GoAir,286,Delhi(DEL),Goa(GOI),28-02-2018,10:40,13:35,Goa(GOI),Delhi(DEL),GoAir,285,03-03-2018,17:30,20:15,10500,,,,,12
,SpiceJet,171,Delhi(DEL),Goa(GOI),28-02-2018,11:25,14:05,Goa(GOI),Delhi(DEL),GoAir,285,04-03-2018,17:30,20:15,10500,,,,,12
,IndiGo,329,Delhi(DEL),Goa(GOI),23-02-2018,10:50,13:40,Goa(GOI),Delhi(DEL),IndiGo,724,26-02-2018,17:45,20:30,11000,,,,,
,,,,,,,,,,,,,,,,,,,,
,,,,,,,,,,,,,,,,,,,,
,,,,,,,,,,,,,,,,,,,,
,,,,,,,,,,,,,,,,,,,,
,,,,,,,,,,,,,,,,,,,,
,,,,,,,,,,,,,,,,,,,,
,,,,,,,,,,,,,,,,,,,,
,,,,,,,,,,,,,,,,,,,,
,,,,,,,,,,,,,,,,,,,,
,,,,,,,,,,,,,,,,,,,,
,,,,,,,,,,,,,,,,,,,,
,,,,,,,,,,,,,,,,,,,,
,,,,,,,,,,,,,,,,,,,,
,,,,,,,,,,,,,,,,,,,,
,,,,,,,,,,,,,,,,,,,,
