flight_name,flight_number,flight_source,flight_destination,flight_departure,flight_departure_time,flight_arrival,flight_price,flight_pnr_no,flight_via,sold,seat
IndiGo,349,Ahmedabad(AMD),Delhi(DEL),8-25-2018,8:25,11:55,2200,,,0,50
IndiGo,349,Ahmedabad(AMD),Delhi(DEL),5-26-2018,8:25,11:55,2200,,,0,50
IndiGo,349,Ahmedabad(AMD),Delhi(DEL),5-27-2018,8:25,11:55,2200,,,0,50
