flight_name,flight_number,flight_source,flight_destination,flight_departure,flight_departure_time,flight_arrival,flight_price,flight_pnr_no,flight_via,sold,seat
GoAirfsdf,600,2,2,2018-01-16,20:17:45,14:59:00,10000,123456,NULL,0,100
SpiceJet,11625,ahmedabad(AMD),agartala(IXA),2017-12-12,14:54:45,16:38:30,20000,1478552,NULL,0,100
