flight_name,flight_number,flight_source,flight_destination,flight_departure,flight_departure_time,flight_arrival,flight_price,flight_pnr_no,flight_via,sold,seat
IndiGo,458,Delhi(DEL),Bangalore(BLR),26-02-2018,06:20,09:05,5500,132,,0,20
IndiGo,458,Delhi(DEL),Bangalore(BLR),12-03-2018,06:20,09:05,5500,132,,0,20
IndiGo,458,Delhi(DEL),Bangalore(BLR),19-03-2018,06:20,09:05,5500,132,,0,20
IndiGo,6929,Delhi(DEL),Bangalore(BLR),19-03-2018,07:55,10:35,5500,132,,0,20
IndiGo,306,Delhi(DEL),Bangalore(BLR),04-03-2018,17:05,19:50,5500,132,,0,20
GoAir,347,Bombay(BOM),Cochin(COK),28-04-2018,10:35,12:30,4500,123,,0,30
GoAir,347,Bombay(BOM),Cochin(COK),10-05-2018,10:35,12:30,4500,123,,0,10
GoAir,347,Bombay(BOM),Cochin(COK),11-05-2018,10:35,12:30,4500,123,,0,10
GoAir,347,Bombay(BOM),Cochin(COK),17-05-2018,10:35,12:30,4500,123,,0,10
GoAir,347,Bombay(BOM),Cochin(COK),18-05-2018,10:35,12:30,4500,123,,0,10
