flight_name,flight_number,flight_source,flight_destination,flight_departure,flight_departure_time,flight_arrival,flight_price,flight_pnr_no,flight_via,sold,seat
SpiceJet,1625,Ahmedabad(AMD),Agartala(IXA),20-02-18,14:54,16:38,20000,1478552,,0,100
SpiceJet,1625,Banglore(BLR),Agartala(IXA),20-02-18,14:54,16:38,20000,1478552,,0,100
Vistara,454,Bombay(BOM),Leh(IXL),21-02-18,14:54,16:38,15000,5698741,,5,80
Vistara,454,Bombay(BOM),Leh(IXL),23-02-18,14:54,16:38,16000,5695689,,10,90
