flight_name,flight_number,flight_source,flight_destination,flight_departure,flight_departure_time,flight_arrival,flight_price,flight_pnr_no,flight_via,sold,seat
SpiceJet,1625,Ahmedabad(AMD),Agartala(IXA),20-02-2018,14:54,16:38,20000,1478552,,0,100
SpiceJet,85,Ahmedabad(AMD),Bangkok(BKK),25-02-2018,18:30,00:40,15400,1598760,,0,50
SpiceJet,653,Delhi(DEL),Srinagar(SXR),30-06-2018,09:50,11:30,7500,1269850,,20,60
GoAir,388,Jaipur(JAI),Bombay(BOM),13-02-2018,08:10,09:55,5000,1369456,,15,30
Vistara,139,Pune(PNQ),Srinagar(SXR),28-02-2018,20:30,23:46,8500,1469853,,0,50
GoAir,388,Jaipur(JAI),Bombay(BOM),13-02-2018,08:10,09:55,5000,1369456,,15,30
SpiceJet,653,Delhi(DEL),Srinagar(SXR),30-06-2018,09:50,11:30,7500,1269850,,20,60
IndiGo,453,Amritsar(ATQ),Goa(GOI),25-02-2018,20:02,23:25,8000,1369874,,20,30
SpiceJet,756,Banglore(BLR),Agra(AGR),29-03-2018,22:23,21:23,7500,1365214,,0,50
