id,flight_name_f,flight_number_f,flight_source_f,flight_destination_f,flight_departure_date_f,flight_departure_time_f,flight_arrival_time_f,flight_name_s,flight_number_s,flight_source_s,flight_destination_s,flight_departure_date_s,flight_departure_time_s,flight_arrival_time_s,flight_name_t,flight_number_t,flight_source_t,flight_destination_t,flight_departure_date_t,flight_departure_time_t,flight_arrival_time_t,flight_price,flight_pnr_no,flight_pnr_no2,flight_pnr_no3,flight_via,sold,seat
1,2,123,3,1,2018-01-16,16:04:00,23:04:00,4,23,4,2,2018-01-18,4:04:00,7:04:00,2,32,4,1,2018-01-20,3:04:00,12:04:00,300000,235,123,123,NULL,0,20
2,2,123,4,2,2017-12-16,18:23:30,21:23:30,2,123,3,2,2017-12-20,18:23:30,21:23:30,4,256,3,1,2017-12-28,18:23:30,3:23:30,200000,256,123,NULL,NULL,0,10
