id,flight_name,flight_number,flight_source,flight_destination,flight_departure_date,flight_departure_time,flight_arrival_time,return_flight_source,return_flight_destination,return_flight_name,return_flight_number,return_departure_date,return_departure_time,return_arrival_time,flight_price,flight_pnr_no,flight_pnr_no2,flight_via,sold,seat
1,Jet Airways,2366,Bombay(BOM),Cochin(COK),25-02-2018,09:20,10:40,Cochin(COK),Ahmedabad(AMD),IndiGo,215,04-03-2018,11:15,13:20,8500,123,321,,0,10
2,Jet Airways,2366,Bombay(BOM),Cochin(COK),02-03-2018,09:20,10:40,Cochin(COK),Ahmedabad(AMD),IndiGo,215,09-03-2018,11:15,13:20,8500,123,321,,0,10
3,Jet Airways,2366,Bombay(BOM),Cochin(COK),05-11-2018,09:25,11:30,Cochin(COK),Ahmedabad(AMD),SpiceJet,154,13-11-2018,19:00,20:55,16284,123,321,,0,15
4,GoAir,215,Bombay(BOM),Cochin(COK),06-11-2018,09:25,11:30,Cochin(COK),Ahmedabad(AMD),SpiceJet,154,14-11-2018,19:00,20:55,16284,123,321,,0,15
5,GoAir,715,Bombay(BOM),Cochin(COK),06-11-2018,10:35,11:35,Cochin(COK),Ahmedabad(AMD),GoAir,345,15-11-2018,19:35,21:35,15285,123,321,,0,15
