id,flight_name,flight_number,flight_source,flight_destination,flight_departure_date,flight_departure_time,flight_arrival_time,return_flight_source,return_flight_destination,return_flight_name,return_flight_number,return_departure_date,return_departure_time,return_arrival_time,flight_price,flight_pnr_no,flight_pnr_no2,flight_via,sold,seat
1,GoAir,0,Ahmedabad(AMD),Bhutan(PBH),24-04-2018,07:10,10:10,Bhutan(PBH),Ahmedabad(AMD),GoAir,0,30-04-2018,11:45,14:35,28500,123,321,0,0,10
2,GoAir,0,Ahmedabad(AMD),Bhutan(PBH),26-04-2018,07:10,10:10,Bhutan(PBH),Ahmedabad(AMD),GoAir,0,02-05-2018,11:45,14:35,28500,123,321,0,0,10
3,GoAir,0,Ahmedabad(AMD),Bhutan(PBH),28-04-2018,07:10,10:10,Bhutan(PBH),Ahmedabad(AMD),GoAir,0,04-05-2018,11:45,14:35,28500,123,321,0,0,10
4,GoAir,0,Ahmedabad(AMD),Bhutan(PBH),01-05-2018,07:10,10:10,Bhutan(PBH),Ahmedabad(AMD),GoAir,0,07-05-2018,11:45,14:35,28500,123,321,0,0,10
5,GoAir,0,Ahmedabad(AMD),Bhutan(PBH),03-05-2018,07:10,10:10,Bhutan(PBH),Ahmedabad(AMD),GoAir,0,09-05-2018,11:45,14:35,28500,123,321,0,0,10
6,GoAir,0,Ahmedabad(AMD),Bhutan(PBH),05-05-2018,07:10,10:10,Bhutan(PBH),Ahmedabad(AMD),GoAir,0,11-05-2018,11:45,14:35,28500,123,321,0,0,10
7,GoAir,0,Ahmedabad(AMD),Bhutan(PBH),08-05-2018,07:10,10:10,Bhutan(PBH),Ahmedabad(AMD),GoAir,0,14-05-2018,16:00,19:00,28500,123,321,0,0,10
8,GoAir,0,Ahmedabad(AMD),Bhutan(PBH),10-05-2018,07:10,10:10,Bhutan(PBH),Ahmedabad(AMD),GoAir,0,14-05-2018,16:00,19:00,28500,123,321,0,0,10
9,GoAir,0,Ahmedabad(AMD),Bhutan(PBH),12-05-2018,07:10,10:10,Bhutan(PBH),Ahmedabad(AMD),GoAir,0,18-05-2018,16:00,19:00,28500,123,321,0,0,10
10,GoAir,0,Delhi(DEL),Bhutan(PBH),15-05-2018,11:40,14:20,Bhutan(PBH),Delhi(DEL),GoAir,0,29-08-1953,07:30,10:35,19600,123,321,0,0,10
11,GoAir,0,Delhi(DEL),Bhutan(PBH),17-05-2018,11:40,14:20,Bhutan(PBH),Delhi(DEL),GoAir,0,29-08-1953,09:00,10:40,19600,123,321,0,0,10
12,GoAir,0,Delhi(DEL),Bhutan(PBH),19-05-2018,11:40,14:20,Bhutan(PBH),Delhi(DEL),GoAir,0,29-08-1953,07:30,10:35,19600,123,321,0,0,10
13,GoAir,0,Delhi(DEL),Bhutan(PBH),22-05-2018,11:40,14:20,Bhutan(PBH),Delhi(DEL),GoAir,0,29-08-1953,07:30,10:35,19600,123,321,0,0,10
14,GoAir,0,Delhi(DEL),Bhutan(PBH),24-05-2018,11:40,14:20,Bhutan(PBH),Delhi(DEL),GoAir,0,29-08-1953,09:00,10:40,19600,123,321,0,0,10
15,GoAir,0,Delhi(DEL),Bhutan(PBH),25-05-2018,11:35,15:15,Bhutan(PBH),Delhi(DEL),GoAir,0,29-08-1953,09:00,10:40,19600,123,321,0,0,10
16,GoAir,0,Delhi(DEL),Bhutan(PBH),26-05-2018,11:40,14:20,Bhutan(PBH),Delhi(DEL),GoAir,0,29-08-1953,07:30,10:35,19600,123,321,0,0,10
17,GoAir,0,Bombay(BOM),Bhutan(PBH),16-05-2018,14:00,17:30,Bhutan(PBH),Bombay(BOM),GoAir,0,06-10-1980,09:00,13:10,29500,123,321,0,0,10
18,GoAir,0,Bombay(BOM),Bhutan(PBH),23-05-2018,14:00,17:30,Bhutan(PBH),Bombay(BOM),GoAir,0,06-10-1980,09:00,13:10,29500,123,321,0,0,10
19,GoAir,0,Bombay(BOM),Bhutan(PBH),30-05-2018,14:00,17:30,Bhutan(PBH),Bombay(BOM),GoAir,0,06-10-1980,09:00,13:10,29500,123,321,0,0,10
20,GoAir,0,Kolkata(CCU),Bhutan(PBH),18-05-2018,06:55,08:25,Bhutan(PBH),Kolkata(CCU),GoAir,0,04-04-1943,08:40,09:20,15800,123,321,0,0,10
21,GoAir,0,Kolkata(CCU),Bhutan(PBH),20-05-2018,09:50,11:20,Bhutan(PBH),Kolkata(CCU),GoAir,0,04-04-1943,15:30,16:10,15800,123,321,0,0,10
22,GoAir,0,Kolkata(CCU),Bhutan(PBH),25-05-2018,06:55,08:25,Bhutan(PBH),Kolkata(CCU),GoAir,0,04-04-1943,08:40,09:20,15800,123,321,0,0,10
23,GoAir,0,Kolkata(CCU),Bhutan(PBH),27-05-2018,09:50,11:20,Bhutan(PBH),Kolkata(CCU),GoAir,0,04-04-1943,15:30,16:10,15800,123,321,0,0,10
