id,flight_name,flight_number,flight_source,flight_destination,flight_departure_date,flight_departure_time,flight_arrival_time,return_flight_source,return_flight_destination,return_flight_name,return_flight_number,return_departure_date,return_departure_time,return_arrival_time,flight_price,flight_pnr_no,flight_pnr_no2,flight_via,sold,seat
1,IndiGo,653,Delhi(DEL),Srinagar(SXR),30-06-2018,09:50,11:30,Srinagar(SXR),Delhi(DEL),IndiGo,694,03-07-2018,15:05,16:35,6500,,,,,20
2,IndiGo,653,Delhi(DEL),Srinagar(SXR),01-07-2018,09:50,11:30,Srinagar(SXR),Delhi(DEL),IndiGo,694,04-07-2018,15:05,16:35,6500,,,,,20
3,IndiGo,653,Delhi(DEL),Srinagar(SXR),02-07-2018,09:50,11:30,Srinagar(SXR),Delhi(DEL),IndiGo,694,05-07-2018,15:05,16:35,6500,,,,,20
4,IndiGo,653,Delhi(DEL),Srinagar(SXR),03-07-2018,09:50,11:30,Srinagar(SXR),Delhi(DEL),IndiGo,694,06-07-2018,15:05,16:35,6500,,,,,20
5,IndiGo,653,Delhi(DEL),Srinagar(SXR),04-07-2018,09:50,11:30,Srinagar(SXR),Delhi(DEL),IndiGo,694,07-07-2018,15:05,16:35,6500,,,,,20
6,IndiGo,653,Delhi(DEL),Srinagar(SXR),05-07-2018,09:50,11:30,Srinagar(SXR),Delhi(DEL),IndiGo,694,08-07-2018,15:05,16:35,6500,,,,,20
7,IndiGo,653,Delhi(DEL),Srinagar(SXR),06-07-2018,09:50,11:30,Srinagar(SXR),Delhi(DEL),IndiGo,694,09-07-2018,15:05,16:35,6500,,,,,20
8,IndiGo,653,Delhi(DEL),Srinagar(SXR),07-07-2018,09:50,11:30,Srinagar(SXR),Delhi(DEL),IndiGo,694,10-07-2018,15:05,16:35,6500,,,,,20
9,IndiGo,653,Delhi(DEL),Srinagar(SXR),08-07-2018,09:50,11:30,Srinagar(SXR),Delhi(DEL),IndiGo,694,11-07-2018,15:05,16:35,6500,,,,,20
10,IndiGo,653,Delhi(DEL),Srinagar(SXR),09-07-2018,09:50,11:30,Srinagar(SXR),Delhi(DEL),IndiGo,694,12-07-2018,15:05,16:35,6500,,,,,20
11,IndiGo,653,Delhi(DEL),Srinagar(SXR),10-07-2018,09:50,11:30,Srinagar(SXR),Delhi(DEL),IndiGo,694,13-07-2018,15:05,16:35,6500,,,,,20
12,GoAir,128,Delhi(DEL),Srinagar(SXR),17-05-2018,09:25,10:55,Srinagar(SXR),Delhi(DEL),GoAir,128,22-05-2018,15:45,17:15,6500,,,,,12
13,GoAir,128,Delhi(DEL),Srinagar(SXR),31-05-2018,09:25,10:55,Srinagar(SXR),Delhi(DEL),GoAir,128,05-06-2018,15:45,17:15,6500,,,,,12
14,GoAir,128,Delhi(DEL),Srinagar(SXR),01-06-2018,09:25,10:55,Srinagar(SXR),Delhi(DEL),GoAir,128,06-06-2018,15:45,17:15,6500,,,,,12
15,GoAir,128,Delhi(DEL),Srinagar(SXR),08-06-2018,09:25,10:55,Srinagar(SXR),Delhi(DEL),GoAir,128,13-06-2018,15:45,17:15,6500,,,,,12
16,GoAir,128,Delhi(DEL),Srinagar(SXR),21-06-2018,09:25,10:55,Srinagar(SXR),Delhi(DEL),GoAir,128,25-06-2018,15:45,17:15,6500,,,,,12
