id,flight_name,flight_number,flight_source,flight_destination,flight_departure_date,flight_departure_time,flight_arrival_time,return_flight_source,return_flight_destination,return_flight_name,return_flight_number,return_departure_date,return_departure_time,return_arrival_time,flight_price,flight_pnr_no,flight_pnr_no2,flight_via,sold,seat
1,4,603,3,1,2018-01-16,19:27:15,19:27:15,1,3,2,203,2018-01-20,19:27:15,19:27:15,10000,123,321,NULL,0,100
6,Ahmedabad(AMD),450,4,1,2017-12-16,13:21:30,20:21:30,1,4,4,560,2017-12-23,16:21:30,23:21:30,120000,123,321,NULL,0,50
