flight_name,flight_number,flight_source,flight_destination,flight_departure,flight_departure_time,flight_arrival,flight_price,flight_pnr_no,flight_via,sold,seat
SpiceJet,1,Ahmedabad(AMD),Agra(AGR),20-02-2018,14:54,16:38,20000,1478552,,0,100
SpiceJet,2,Agartala(IXA),Banglore(BLR),20-02-2018,14:54,16:38,20000,1478552,,0,100
