id,flight_name_f,flight_number_f,flight_source_f,flight_destination_f,flight_departure_date_f,flight_departure_time_f,flight_arrival_time_f,flight_name_s,flight_number_s,flight_source_s,flight_destination_s,flight_departure_date_s,flight_departure_time_s,flight_arrival_time_s,flight_name_t,flight_number_t,flight_source_t,flight_destination_t,flight_departure_date_t,flight_departure_time_t,flight_arrival_time_t,flight_name_f,flight_number_f,flight_source_f,flight_destination_f,flight_departure_date_f,flight_departure_time_f,flight_arrival_time_f,flight_price,flight_pnr_no,flight_pnr_no2,flight_pnr_no3,flight_pnr_no4,flight_via,sold,seat
5,SpiceJet,453,Ahemedabad(AMD),Banglore(BLR),25-02-2018,14:02,15:25,SpiceJet,453,Kochin(COK),Thiruvananthapuram(TRV),25-02-2018,18:23,21:23,SpiceJet,256,Thiruvananthapuram(TRV),Kochin(COK),02-03-2018,02:30,04:22,SpiceJet,256,Banglore(BLR),Ahemedabad(AMD),02-03-2018,05:30,07:22,2000,,,,,0,10,
,,,,,,,,,,,,,,,,,,,,,,,,,,,,,,,,,,,,
,,,,,,,,,,,,,,,,,,,,,,,,,,,,,,,,,,,,
,,,,,,,,,,,,,,,,,,,,,,,,,,,,,,,,,,,,
