flight_name,flight_number,flight_source,flight_destination,flight_departure,flight_departure_time,flight_arrival,flight_price,flight_pnr_no,flight_via,sold,seat
SpiceJet,1625,Ahmedabad(AMD),Agartala(IXA),20-02-18,14:54,16:38,20000,1478552,,0,100
SpiceJet,1625,Banglore(BLR),Agartala(IXA),20-02-18,14:54,16:38,20000,1478552,,0,100
GoAir,386,Bombay(BOM),Leh(IXL),20-05-18,14:00,16:50,28000,1234567,,0,50
SpiceJet,485,Bombay(BOM),Leh(IXL),23-05-18,14:00,16:50,27500,1566984,,0,40
GoAir,386,Bombay(BOM),Leh(IXL),25-05-18,14:00,16:50,27900,1026589,,0,30
SpiceJet,485,Bombay(BOM),Leh(IXL),27-05-18,14:00,16:50,30000,1000359,,0,20
