flight_name,flight_number,flight_source,flight_destination,flight_departure,flight_departure_time,flight_arrival,flight_price,flight_pnr_no,flight_via,sold,seat
SpiceJet,1625,Ahmedabad(AMD),Agartala(IXA),17-01-2018,14:54:45,16:38:30,20000,1478552,NULL,0,100
SpiceJet,1625,Banglore(BLR),Agartala(IXA),18-01-2018,14:54:45,16:38:30,20000,1478552,NULL,0,100
,,,,,,,,,,,
Go air ,G8 388 ,Jaipur (JAI),Bombay (BOM),29-01-2018,13:05,14:50:00,5700,12345,NULL,0,1
Go air ,G8 389,Jaipur (JAI),Bombay (BOM),31-01-2018,13:05,14:50:00,3300,12345,NULL,0,4
Go air ,G8 390,Jaipur (JAI),Bombay (BOM),02-02-2018,13:05,14:50:00,3300,12345,NULL,0,5
Go air ,G8 391,Jaipur (JAI),Bombay (BOM),05-02-2018,13:05,14:50:00,3400,12345,NULL,0,3
Go air ,G8 392,Jaipur (JAI),Bombay (BOM),08-02-2018,13:05,14:50:00,3800,12345,NULL,0,5
Go air ,G8 393,Jaipur (JAI),Bombay (BOM),09-02-2018,13:05,14:50:00,3100,12345,NULL,0,5
Go air ,G8 394,Jaipur (JAI),Bombay (BOM),13-02-2018,13:05,14:50:00,3200,12345,NULL,0,5
Go air ,G8 395,Jaipur (JAI),Bombay (BOM),16-02-2018,13:05,14:50:00,3100,12345,NULL,0,5
Go air ,G8 396,Jaipur (JAI),Bombay (BOM),20-02-2018,13:05,14:50:00,3400,12345,NULL,0,5
Go air ,G8 397,Jaipur (JAI),Bombay (BOM),21-02-2018,13:05,14:50:00,3400,12345,NULL,0,5
Go air ,G8 398,Jaipur (JAI),Bombay (BOM),22-02-2018,13:05,14:50:00,3100,12345,NULL,0,5
Go air ,G8 399,Jaipur (JAI),Bombay (BOM),26-02-2018,13:05,14:50:00,3200,12345,NULL,0,5
Go air ,G8 400,Jaipur (JAI),Bombay (BOM),27-02-2018,13:05,14:50:00,3300,12345,NULL,0,5
