flight_name,flight_number,flight_source,flight_destination,flight_departure,flight_departure_time,flight_arrival,flight_price,flight_pnr_no,flight_via,sold,seat
GoAir,347,Bombay(BOM),Cochin(COK),28-04-2018,10:35,12:30,4500,123,,0,30
GoAir,347,Bombay(BOM),Cochin(COK),10-05-2018,10:35,12:30,4500,123,,0,10
GoAir,347,Bombay(BOM),Cochin(COK),11-05-2018,10:35,12:30,4500,123,,0,10
GoAir,347,Bombay(BOM),Cochin(COK),17-05-2018,10:35,12:30,4500,123,,0,10
GoAir,347,Bombay(BOM),Cochin(COK),18-05-2018,10:35,12:30,4500,123,,0,10
GoAir,347,Bombay(BOM),Cochin(COK),24-05-2018,10:35,12:30,4500,123,,0,10
GoAir,347,Bombay(BOM),Cochin(COK),25-05-2018,10:35,12:30,4500,123,,0,10
GoAir,347,Bombay(BOM),Cochin(COK),31-05-2018,10:35,12:30,4500,123,,0,10
GoAir,347,Bombay(BOM),Cochin(COK),01-06-2018,10:35,12:30,4500,123,,0,10
GoAir,347,Bombay(BOM),Cochin(COK),07-06-2018,10:35,12:30,4500,123,,0,10
IndiGo,439,Cochin(COK),Bombay(BOM),03-05-2018,16:00,18:05,2800,321,,0,15
IndiGo,439,Cochin(COK),Bombay(BOM),14-05-2018,16:00,18:05,2800,321,,0,10
IndiGo,439,Cochin(COK),Bombay(BOM),21-05-2018,16:00,18:05,2800,321,,0,10
IndiGo,439,Cochin(COK),Bombay(BOM),28-05-2018,16:00,18:05,2800,321,,0,10
IndiGo,439,Cochin(COK),Bombay(BOM),04-06-2018,16:00,18:05,2800,321,,0,10
IndiGo,439,Cochin(COK),Bombay(BOM),11-06-2018,16:00,18:05,2800,321,,0,10
