id,flight_name_f,flight_number_f,flight_source_f,flight_destination_f,flight_departure_date_f,flight_departure_time_f,flight_arrival_time_f,flight_name_s,flight_number_s,flight_source_s,flight_destination_s,flight_departure_date_s,flight_departure_time_s,flight_arrival_time_s,flight_name_t,flight_number_t,flight_source_t,flight_destination_t,flight_departure_date_t,flight_departure_time_t,flight_arrival_time_t,flight_price,flight_pnr_no,flight_pnr_no2,flight_pnr_no3,flight_via,sold,seat
,SpiceJet,453,Amritsar(ATQ),Goa(GOI),25-02-2018,20:02,23:25,SpiceJet,234,Kathmandu(KTM),Ahmedabad(AMD),28-02-2018,18:23,21:23,SpiceJet,256,Amritsar(ATQ),Goa(GOI),02-03-2018,02:30,04:22,200000,256,123,,,0,10
,SpiceJet,756,Banglore(BRL),Agra(AGR),29-03-2018,22:23,21:23,SpiceJet,369,New Delhi(DEL),Srinagar(SXR),31-03-2018,03:50,06:30,SpiceJet,267,Banglore(BLR),Agra(AGR),03-04-2018,05:13,07:30,150000,357,753,,,0,20
,SpiceJet,453,Singapore(SIN),Goa(GOI),25-02-2018,20:02,23:25,SpiceJet,234,Kathmandu(KTM),Ahmedabad(AMD),28-02-2018,18:23,21:23,SpiceJet,256,Goa(GOI),Singapore(SIN),02-03-2018,02:30,04:22,200000,256,123,,,0,10
,SpiceJet,756,Bhatinda(BUP),Jaipur(JAI),29-03-2018,22:23,21:23,SpiceJet,369,New Delhi(DEL),Srinagar(SXR),31-03-2018,03:50,06:30,SpiceJet,267,Jaipur(JAI),Bhatinda(BUP),03-04-2018,05:13,07:30,150000,357,753,,,0,20
