flight_name,flight_number,flight_source,flight_destination,flight_departure,flight_departure_time,flight_arrival,flight_price,flight_pnr_no,flight_via,sold,seat
SpiceJet,1625,Ahmedabad(AMD),Agartala(IXA),20-02-18,14:54,16:38,20000,1478552,,0,100
SpiceJet,1625,Banglore(BLR),Agartala(IXA),20-02-18,14:54,16:38,20000,1478552,,0,100
JetAirway,2366,Delhi(DEL),Leh(IXL),11-06-18,6:55,8:25,9000,15986,,2,8
SpiceJet,653,Delhi(DEL),Shrinagar(SXR),30-06-18,9:50,11:30,7500,12369,,9,11
SpiceJet,31,Delhi(DEL),Kathmandu,01-03-18,11:45,13:45,11500,23698,,0,15
