flight_name,flight_number,flight_source,flight_destination,flight_departure,flight_departure_time,flight_arrival,flight_price,flight_pnr_no,flight_via,sold,seat
GoAir,388,Jaipur(JAI),Bombay(BOM),13-02-2018,08:10,09:55,3200,123,,0,10
GoAir,388,Jaipur(JAI),Bombay(BOM),16-02-2018,08:10,09:55,3100,123,,0,10
GoAir,388,Jaipur(JAI),Bombay(BOM),20-02-2018,08:10,09:55,3400,123,,0,10
GoAir,388,Jaipur(JAI),Bombay(BOM),21-02-2018,08:10,09:55,3400,123,,0,10
GoAir,388,Jaipur(JAI),Bombay(BOM),22-02-2018,08:10,09:55,3100,123,,0,10
GoAir,388,Jaipur(JAI),Bombay(BOM),23-02-2018,08:10,09:55,3300,123,,0,10
GoAir,388,Jaipur(JAI),Bombay(BOM),26-02-2018,08:10,09:55,3200,123,,0,10
GoAir,388,Jaipur(JAI),Bombay(BOM),27-02-2018,08:10,09:55,3300,123,,0,10
GoAir,388,Jaipur(JAI),Bombay(BOM),28-02-2018,08:10,09:55,3100,123,,0,10
GoAir,388,Jaipur(JAI),Bombay(BOM),04-03-2018,08:10,09:55,3300,123,,0,10
