flight_name,flight_number,flight_source,flight_destination,flight_departure,flight_departure_time,flight_arrival,flight_price,flight_pnr_no,flight_via,sold,seat
IndiGo,349,Ahmedabad(AMD),Delhi(DEL),25-03-18,10:25,11:55,2200,,,0,50
IndiGo,349,Ahmedabad(AMD),Delhi(DEL),26-03-18,10:25,11:55,2200,,,0,50
IndiGo,349,Ahmedabad(AMD),Delhi(DEL),27-03-18,10:25,11:55,2200,,,0,50
IndiGo,349,Ahmedabad(AMD),Delhi(DEL),28-03-18,10:25,11:55,2200,,,0,50
IndiGo,349,Ahmedabad(AMD),Delhi(DEL),29-03-18,10:25,11:55,2200,,,0,50
IndiGo,349,Ahmedabad(AMD),Delhi(DEL),30-03-18,10:25,11:55,2200,,,0,50
IndiGo,349,Ahmedabad(AMD),Delhi(DEL),31-03-18,10:25,11:55,2200,,,0,50
IndiGo,349,Ahmedabad(AMD),Delhi(DEL),01-04-18,10:25,11:55,2200,,,0,50
IndiGo,349,Ahmedabad(AMD),Delhi(DEL),02-04-18,10:25,11:55,2200,,,0,50
IndiGo,349,Ahmedabad(AMD),Delhi(DEL),03-04-18,10:25,11:55,2200,,,0,50
IndiGo,349,Ahmedabad(AMD),Delhi(DEL),04-04-18,10:25,11:55,2200,,,0,50
IndiGo,349,Ahmedabad(AMD),Delhi(DEL),05-04-18,10:25,11:55,2200,,,0,50
