flight_name,flight_number,flight_source,flight_destination,flight_departure,flight_departure_time,flight_arrival,flight_price,flight_pnr_no,flight_via,sold,seat
GoAir,347,Bombay(BOM),Cochin(COK),28-04-2018,10:35,12:30,4500,123,,0,30
GoAir,347,Bombay(BOM),Cochin(COK),10-05-2018,10:35,12:30,4500,123,,0,10
GoAir,347,Bombay(BOM),Cochin(COK),11-05-2018,10:35,12:30,4500,123,,0,10
GoAir,347,Bombay(BOM),Cochin(COK),17-05-2018,10:35,12:30,4500,123,,0,10
GoAir,347,Bombay(BOM),Cochin(COK),18-05-2018,10:35,12:30,4500,123,,0,10
GoAir,347,Bombay(BOM),Cochin(COK),24-05-2018,10:35,12:30,4500,123,,0,10
GoAir,347,Bombay(BOM),Cochin(COK),25-05-2018,10:35,12:30,4500,123,,0,10
GoAir,347,Bombay(BOM),Cochin(COK),31-05-2018,10:35,12:30,4500,123,,0,10
GoAir,347,Bombay(BOM),Cochin(COK),01-06-2018,10:35,12:30,4500,123,,0,10
GoAir,347,Bombay(BOM),Cochin(COK),07-06-2018,10:35,12:30,4500,123,,0,10
IndiGo,439,Cochin(COK),Bombay(BOM),03-05-2018,16:00,18:05,2800,321,,0,15
IndiGo,439,Cochin(COK),Bombay(BOM),14-05-2018,16:00,18:05,2800,321,,0,10
IndiGo,439,Cochin(COK),Bombay(BOM),21-05-2018,16:00,18:05,2800,321,,0,10
IndiGo,439,Cochin(COK),Bombay(BOM),28-05-2018,16:00,18:05,2800,321,,0,10
IndiGo,439,Cochin(COK),Bombay(BOM),04-06-2018,16:00,18:05,2800,321,,0,10
IndiGo,439,Cochin(COK),Bombay(BOM),11-06-2018,16:00,18:05,2800,321,,0,10
SpiceJet,1625,Cochin(COK),Bombay(BOM),20-02-2018,14:54,16:38,20000,1478552,,0,100
SpiceJet,85,Cochin(COK),Bombay(BOM),25-02-2018,18:30,00:40,15400,1598760,,0,50
SpiceJet,653,Cochin(COK),Bombay(BOM),30-06-2018,09:50,11:30,7500,1269850,,20,60
GoAir,388,Cochin(COK),Bombay(BOM),13-02-2018,08:10,09:55,5000,1369456,,15,30
Vistara,139,Cochin(COK),Bombay(BOM),28-02-2018,20:30,23:46,8500,1469853,,0,50
GoAir,388,Cochin(COK),Bombay(BOM),13-02-2018,08:10,09:55,5000,1369456,,15,30
SpiceJet,653,Cochin(COK),Bombay(BOM),30-06-2018,09:50,11:30,7500,1269850,,20,60
IndiGo,453,Cochin(COK),Bombay(BOM),25-02-2018,20:02,23:25,8000,1369874,,20,30
SpiceJet,756,Cochin(COK),Bombay(BOM),29-03-2018,22:23,21:23,7500,1365214,,0,50
