id,flight_name,flight_number,flight_source,flight_destination,flight_departure_date,flight_departure_time,flight_arrival_time,return_flight_source,return_flight_destination,return_flight_name,return_flight_number,return_departure_date,return_departure_time,return_arrival_time,flight_price,flight_pnr_no,flight_pnr_no2,flight_via,sold,seat
1,Singapore Airlines,403,Delhi(DEL),Singapore(SIN),17-02-2018,22:10,06:15,Singapore(SIN),Delhi(DEL),Singapore Airlines,406,24-02-2018,16:25,19:45,25000,,,,,0
2,Singapore Airlines,403,Delhi(DEL),Singapore(SIN),17-02-2018,22:10,06:15,Singapore(SIN),Delhi(DEL),Singapore Airlines,406,24-02-2018,16:25,19:45,0,,,,,0
3,Singapore Airlines,403,Delhi(DEL),Singapore(SIN),17-02-2018,21:35,05:40,Singapore(SIN),Delhi(DEL),Singapore Airlines,406,24-02-2018,16:25,19:45,0,,,,,0
4,Singapore Airlines,403,Delhi(DEL),Singapore(SIN),28-02-2018,22:10,06:15,Singapore(SIN),Delhi(DEL),Singapore Airlines,406,06-03-2018,16:25,19:45,25000,,,,,0
5,Singapore Airlines,403,Delhi(DEL),Singapore(SIN),28-02-2018,22:10,06:15,Singapore(SIN),Delhi(DEL),Singapore Airlines,406,06-03-2018,16:25,19:45,0,,,,,0
6,Singapore Airlines,403,Delhi(DEL),Singapore(SIN),28-02-2018,21:35,05:40,Singapore(SIN),Delhi(DEL),Singapore Airlines,406,06-03-2018,16:25,19:45,0,,,,,0
7,Scoot,575,Hyderabad(HYD),Singapore(SIN),01-05-2018,01:40,08:50,Singapore(SIN),Hyderabad(HYD),Scoot,574,07-05-2018,22:35,00:40,0,,,,,0
8,Scoot,575,Hyderabad(HYD),Singapore(SIN),06-05-2018,01:40,08:50,Singapore(SIN),Hyderabad(HYD),Scoot,574,12-05-2018,22:35,00:40,0,,,,,0
9,Scoot,575,Hyderabad(HYD),Singapore(SIN),15-05-2018,01:40,08:50,Singapore(SIN),Hyderabad(HYD),Scoot,574,21-05-2018,22:35,00:40,0,,,,,0
10,Scoot,575,Hyderabad(HYD),Singapore(SIN),20-05-2018,01:40,08:50,Singapore(SIN),Hyderabad(HYD),Scoot,574,26-05-2018,22:35,00:40,0,,,,,0
11,Scoot,575,Hyderabad(HYD),Singapore(SIN),29-05-2018,01:40,08:50,Singapore(SIN),Hyderabad(HYD),Scoot,574,04-06-2018,22:35,00:40,0,,,,,0
