id,flight_name,flight_number,flight_source,flight_destination,flight_departure_date,flight_departure_time,flight_arrival_time,return_flight_source,return_flight_destination,return_flight_name,return_flight_number,return_departure_date,return_departure_time,return_arrival_time,flight_price,flight_pnr_no,flight_pnr_no2,flight_via,sold,seat
1,Jet Airways,2366,Delhi(DEL),Leh(IXL),18-05-2018,06:55,08:20,Leh(IXL),Delhi(DEL),Jet Airways,2367,25-05-2018,08:55,10:20,17000,123,321,,0,5
2,Jet Airways,2366,Delhi(DEL),Leh(IXL),04-06-2018,06:55,08:20,Leh(IXL),Delhi(DEL),Jet Airways,2369,11-06-2018,07:40,09:05,17000,123,321,,0,10
3,Jet Airways,2366,Delhi(DEL),Leh(IXL),11-06-2018,06:55,08:25,Leh(IXL),Delhi(DEL),Jet Airways,2367,18-06-2018,08:55,10:20,17000,123,321,,0,10
4,GoAir,215,Delhi(DEL),Leh(IXL),20-05-2018,05:10,06:25,Leh(IXL),Delhi(DEL),GoAir,204,26-05-2018,08:35,09:55,17000,123,321,,0,12
5,GoAir,715,Delhi(DEL),Leh(IXL),20-05-2018,08:40,10:00,Leh(IXL),Delhi(DEL),GoAir,194,26-05-2018,10:30,11:50,17000,123,321,,0,12
6,Vistara,701,Delhi(DEL),Leh(IXL),20-05-2018,07:20,08:45,Leh(IXL),Delhi(DEL),Vistara,766,27-05-2018,09:20,11:00,17000,123,321,,0,12
7,Vistara,701,Delhi(DEL),Leh(IXL),21-05-2018,07:20,08:45,Leh(IXL),Delhi(DEL),Vistara,766,28-05-2018,09:20,11:00,17000,123,321,,0,12
8,Vistara,701,Delhi(DEL),Leh(IXL),22-05-2018,07:20,08:45,Leh(IXL),Delhi(DEL),Vistara,766,29-05-2018,09:20,11:00,17000,123,321,,0,12
9,Vistara,701,Delhi(DEL),Leh(IXL),23-05-2018,07:20,08:45,Leh(IXL),Delhi(DEL),Vistara,766,30-05-2018,09:20,11:00,17000,123,321,,0,12
10,Vistara,701,Delhi(DEL),Leh(IXL),24-05-2018,07:20,08:45,Leh(IXL),Delhi(DEL),Vistara,766,31-05-2018,09:20,11:00,17000,123,321,,0,12
11,Vistara,701,Delhi(DEL),Leh(IXL),25-05-2018,07:20,08:45,Leh(IXL),Delhi(DEL),Vistara,766,01-06-2018,09:20,11:00,17000,123,321,,0,12
12,Vistara,701,Delhi(DEL),Leh(IXL),26-05-2018,07:20,08:45,Leh(IXL),Delhi(DEL),Vistara,766,02-06-2018,09:20,11:00,17000,123,321,,0,12
13,Vistara,701,Delhi(DEL),Leh(IXL),27-05-2018,07:20,08:45,Leh(IXL),Delhi(DEL),Vistara,766,03-06-2018,09:20,11:00,17000,123,321,,0,12
14,Vistara,701,Delhi(DEL),Leh(IXL),28-05-2018,07:20,08:45,Leh(IXL),Delhi(DEL),Vistara,766,04-06-2018,09:20,11:00,17000,123,321,,0,12
15,Vistara,701,Delhi(DEL),Leh(IXL),29-05-2018,07:20,08:45,Leh(IXL),Delhi(DEL),Vistara,766,05-06-2018,09:20,11:00,17000,123,321,,0,12
16,Vistara,701,Delhi(DEL),Leh(IXL),30-05-2018,07:20,08:45,Leh(IXL),Delhi(DEL),Vistara,766,06-06-2018,09:20,11:00,17000,123,321,,0,12
17,Vistara,701,Delhi(DEL),Leh(IXL),31-05-2018,07:20,08:45,Leh(IXL),Delhi(DEL),Vistara,766,07-06-2018,09:20,11:00,17000,123,321,,0,12
18,Vistara,701,Delhi(DEL),Leh(IXL),01-06-2018,07:20,08:45,Leh(IXL),Delhi(DEL),Vistara,766,08-06-2018,09:20,11:00,17000,123,321,,0,12
19,Vistara,701,Delhi(DEL),Leh(IXL),02-06-2018,07:20,08:45,Leh(IXL),Delhi(DEL),Vistara,766,09-06-2018,09:20,11:00,17000,123,321,,0,12
20,Vistara,701,Delhi(DEL),Leh(IXL),03-06-2018,07:20,08:45,Leh(IXL),Delhi(DEL),Vistara,766,10-06-2018,09:20,11:00,17000,123,321,,0,12
21,Vistara,701,Delhi(DEL),Leh(IXL),04-06-2018,07:20,08:45,Leh(IXL),Delhi(DEL),Vistara,766,11-06-2018,09:20,11:00,17000,123,321,,0,12
22,Vistara,701,Delhi(DEL),Leh(IXL),05-06-2018,07:20,08:45,Leh(IXL),Delhi(DEL),Vistara,766,12-06-2018,09:20,11:00,17000,123,321,,0,12
23,GoAir,221,Delhi(DEL),Leh(IXL),31-05-2018,09:25,10:50,Leh(IXL),Delhi(DEL),GoAir,220,06-06-2018,11:20,13:00,18000,123,321,,0,12
24,GoAir,221,Delhi(DEL),Leh(IXL),07-06-2018,09:25,10:50,Leh(IXL),Delhi(DEL),GoAir,220,13-06-2018,11:20,13:00,18000,123,321,,0,12
25,GoAir,221,Delhi(DEL),Leh(IXL),08-06-2018,09:25,10:50,Leh(IXL),Delhi(DEL),GoAir,220,14-06-2018,11:20,13:00,18000,123,321,,0,12
26,GoAir,221,Delhi(DEL),Leh(IXL),14-06-2018,09:25,10:50,Leh(IXL),Delhi(DEL),GoAir,220,20-06-2018,11:20,13:00,18000,123,321,,0,12
27,GoAir,221,Delhi(DEL),Leh(IXL),15-06-2018,09:25,10:50,Leh(IXL),Delhi(DEL),GoAir,220,21-06-2018,11:20,13:00,18000,123,321,,0,12
28,GoAir,221,Delhi(DEL),Leh(IXL),21-06-2018,09:25,10:50,Leh(IXL),Delhi(DEL),GoAir,220,27-06-2018,11:20,13:00,18000,123,321,,0,12
29,GoAir,221,Delhi(DEL),Leh(IXL),22-06-2018,09:25,10:50,Leh(IXL),Delhi(DEL),GoAir,220,28-06-2018,11:20,13:00,18000,123,321,,0,12
30,GoAir,386,Bombay(BOM),Leh(IXL),20-05-2018,04:00,06:50,Leh(IXL),Bombay(BOM),GoAir,386,26-05-2018,07:20,11:25,28500,123,321,,0,12
31,GoAir,386,Bombay(BOM),Leh(IXL),13-05-2018,04:00,06:50,Leh(IXL),Bombay(BOM),GoAir,386,20-05-2018,07:20,11:25,28500,123,321,,0,12
32,GoAir,386,Bombay(BOM),Leh(IXL),19-05-2018,04:00,06:50,Leh(IXL),Bombay(BOM),GoAir,386,26-05-2018,07:20,11:25,28500,123,321,,0,12
33,GoAir,386,Bombay(BOM),Leh(IXL),23-05-2018,04:00,06:50,Leh(IXL),Bombay(BOM),GoAir,386,30-05-2018,07:20,11:25,28500,123,321,,0,12
34,GoAir,386,Bombay(BOM),Leh(IXL),24-05-2018,04:00,06:50,Leh(IXL),Bombay(BOM),GoAir,386,31-05-2018,07:20,11:25,28500,123,321,,0,12
35,GoAir,386,Bombay(BOM),Leh(IXL),25-05-2018,04:00,06:50,Leh(IXL),Bombay(BOM),GoAir,386,01-06-2018,07:20,11:25,28500,123,321,,0,12
36,GoAir,386,Bombay(BOM),Leh(IXL),26-05-2018,04:00,06:50,Leh(IXL),Bombay(BOM),GoAir,386,02-06-2018,07:20,11:25,28500,123,321,,0,12
37,GoAir,386,Bombay(BOM),Leh(IXL),27-05-2018,04:00,06:50,Leh(IXL),Bombay(BOM),GoAir,386,03-06-2018,07:20,11:25,28500,123,321,,0,12
38,GoAir,386,Bombay(BOM),Leh(IXL),30-05-2018,04:00,06:50,Leh(IXL),Bombay(BOM),GoAir,386,06-06-2018,07:20,11:25,28500,123,321,,0,12
39,GoAir,386,Bombay(BOM),Leh(IXL),02-06-2018,04:00,06:50,Leh(IXL),Bombay(BOM),GoAir,386,09-06-2018,07:20,11:25,28500,123,321,,0,12
40,GoAir,386,Bombay(BOM),Leh(IXL),09-06-2018,04:00,06:50,Leh(IXL),Bombay(BOM),GoAir,386,16-06-2018,07:20,11:25,28500,123,321,,0,12
41,GoAir,386,Bombay(BOM),Leh(IXL),12-05-2018,04:00,06:50,Leh(IXL),Bombay(BOM),GoAir,386,19-05-2018,07:20,11:25,28500,123,321,,0,12
42,GoAir,386,Bombay(BOM),Leh(IXL),13-05-2018,04:00,06:50,Leh(IXL),Bombay(BOM),GoAir,386,20-05-2018,07:20,11:25,28500,123,321,,0,12
43,GoAir,386,Bombay(BOM),Leh(IXL),19-05-2018,04:00,06:50,Leh(IXL),Bombay(BOM),GoAir,386,26-05-2018,07:20,11:25,28500,123,321,,0,12
44,GoAir,386,Bombay(BOM),Leh(IXL),20-05-2018,04:00,06:50,Leh(IXL),Bombay(BOM),GoAir,386,27-05-2018,07:20,11:25,28500,123,321,,0,12
45,GoAir,386,Bombay(BOM),Leh(IXL),21-05-2018,04:00,06:50,Leh(IXL),Bombay(BOM),GoAir,386,28-05-2018,07:20,11:25,28500,123,321,,0,12
46,GoAir,386,Bombay(BOM),Leh(IXL),26-05-2018,04:00,06:50,Leh(IXL),Bombay(BOM),GoAir,386,02-06-2018,07:20,11:25,28500,123,321,,0,12
47,GoAir,386,Bombay(BOM),Leh(IXL),27-05-2018,04:00,06:50,Leh(IXL),Bombay(BOM),GoAir,386,03-06-2018,07:20,11:25,28500,123,321,,0,12
48,GoAir,386,Bombay(BOM),Leh(IXL),29-05-2018,04:00,06:50,Leh(IXL),Bombay(BOM),GoAir,386,05-06-2018,07:20,11:25,28500,123,321,,0,12
49,GoAir,386,Bombay(BOM),Leh(IXL),02-06-2018,04:00,06:50,Leh(IXL),Bombay(BOM),GoAir,386,09-06-2018,07:20,11:25,28500,123,321,,0,12
50,GoAir,386,Bombay(BOM),Leh(IXL),03-06-2018,04:00,06:50,Leh(IXL),Bombay(BOM),GoAir,386,10-06-2018,07:20,11:25,28500,123,321,,0,12
51,GoAir,386,Bombay(BOM),Leh(IXL),09-06-2018,04:00,06:50,Leh(IXL),Bombay(BOM),GoAir,386,16-06-2018,07:20,11:25,28500,123,321,,0,12
52,GoAir,386,Bombay(BOM),Leh(IXL),10-06-2018,04:00,06:50,Leh(IXL),Bombay(BOM),GoAir,386,17-06-2018,07:20,11:25,28500,123,321,,0,12
