id,flight_name,flight_number,flight_source,flight_destination,flight_departure_date,flight_departure_time,flight_arrival_time,return_flight_source,return_flight_destination,return_flight_name,return_flight_number,return_departure_date,return_departure_time,return_arrival_time,flight_price,flight_pnr_no,flight_pnr_no2,flight_via,sold,seat
6,Jet Airways,2366,Delhi(DEL),Leh(IXL),18-05-2018,06:55,08:20,Leh(IXL),Delhi(DEL),Jet Airways,2367,25-05-2018,08:55,10:20,17000,123,321,,0,5
7,Jet Airways,2366,Delhi(DEL),Leh(IXL),04-06-2018,06:55,08:20,Leh(IXL),Delhi(DEL),Jet Airways,2369,11-06-2018,07:40,09:05,17000,123,321,,0,10
8,Jet Airways,2366,Delhi(DEL),Leh(IXL),11-06-2018,06:55,08:25,Leh(IXL),Delhi(DEL),Jet Airways,2367,18-06-2018,08:55,10:20,17000,123,321,,0,10
9,GoAir,215,Delhi(DEL),Leh(IXL),20-05-2018,05:10,06:25,Leh(IXL),Delhi(DEL),GoAir,204,26-05-2018,08:35,09:55,17000,123,321,,0,12
10,GoAir,715,Delhi(DEL),Leh(IXL),20-05-2018,08:40,10:00,Leh(IXL),Delhi(DEL),GoAir,194,26-05-2018,10:30,11:50,17000,123,321,,0,12
6,Vistara,701,Delhi(DEL),Leh(IXL),20-05-2018,07:20,08:45,Leh(IXL),Delhi(DEL),Vistara,766,27-05-2018,09:20,11:00,17000,123,321,,0,12
7,Vistara,701,Delhi(DEL),Leh(IXL),21-05-2018,07:20,08:45,Leh(IXL),Delhi(DEL),Vistara,766,28-05-2018,09:20,11:00,17000,123,321,,0,12
8,Vistara,701,Delhi(DEL),Leh(IXL),22-05-2018,07:20,08:45,Leh(IXL),Delhi(DEL),Vistara,766,29-05-2018,09:20,11:00,17000,123,321,,0,12
9,Vistara,701,Delhi(DEL),Leh(IXL),23-05-2018,07:20,08:45,Leh(IXL),Delhi(DEL),Vistara,766,30-05-2018,09:20,11:00,17000,123,321,,0,12
10,Vistara,701,Delhi(DEL),Leh(IXL),24-05-2018,07:20,08:45,Leh(IXL),Delhi(DEL),Vistara,766,31-05-2018,09:20,11:00,17000,123,321,,0,12
