id,flight_name,flight_number,flight_source,flight_destination,flight_departure_date,flight_departure_time,flight_arrival_time,return_flight_source,return_flight_destination,return_flight_name,return_flight_number,return_departure_date,return_departure_time,return_arrival_time,flight_price,flight_pnr_no,flight_pnr_no2,flight_via,sold,seat
6,GoAir,456,Delhi(DEL),Bombay(BOM),20-02-2018,13:21,20:21,Bombay(BOM),Delhi(DEL),GoAir,457,25-02-2018,16:21,23:21,120000,123,321,,0,50
7,SpiceJet,265,Amritsar(ATQ),Goa(GOI),23-02-2018,13:21,20:21,Goa(GOI),Amritsar(ATQ),GoAir,257,26-02-2018,16:21,23:21,120000,123,321,,0,50
8,Vistara,123,Bhatinda(BUP),Bhavnagar(BHU),23-02-2018,20:12,23:05,Bhavnagar(BHU),Bhatinda(BUP),TueJet,321,28-02-2018,02:35,05:25,18000,256,652,,0,100
9,IndiGO,365,Aurangabad(IXU),Bhopal(BHO),27-02-2018,03:35,06:33,Bhopal(BHO),Aurangabad(IXU),Jet Airways,259,03-03-2018,11:32,08:30,20000,563,365,,0,75
