flight_name,flight_number,flight_source,flight_destination,flight_departure,flight_departure_time,flight_arrival,flight_price,flight_pnr_no,flight_via,sold,seat
IndiGo,349,Ahmedabad(AMD),Delhi(DEL),23-02-18,13:55,15:25,2500,,,10,90
IndiGo,349,Ahmedabad(AMD),Delhi(DEL),24-02-18,13:55,15:25,2500,,,10,90
IndiGo,349,Ahmedabad(AMD),Delhi(DEL),25-02-18,13:55,15:25,2500,,,10,90
IndiGo,349,Ahmedabad(AMD),Delhi(DEL),26-02-18,13:55,15:25,2500,,,10,90
IndiGo,349,Ahmedabad(AMD),Delhi(DEL),27-02-18,13:55,15:25,2500,,,10,90
IndiGo,349,Ahmedabad(AMD),Delhi(DEL),28-02-18,13:55,15:25,2500,,,10,90
IndiGo,349,Ahmedabad(AMD),Delhi(DEL),01-03-18,13:55,15:25,2500,,,10,90
IndiGo,349,Ahmedabad(AMD),Delhi(DEL),02-03-18,13:55,15:25,2500,,,10,90
IndiGo,349,Ahmedabad(AMD),Delhi(DEL),03-03-18,13:55,15:25,2500,,,10,90
IndiGo,349,Ahmedabad(AMD),Delhi(DEL),04-03-18,13:55,15:25,2500,,,10,90
IndiGo,349,Ahmedabad(AMD),Delhi(DEL),05-03-18,13:55,15:25,2500,,,10,90
IndiGo,349,Ahmedabad(AMD),Delhi(DEL),06-03-18,13:55,15:25,2500,,,10,90
IndiGo,349,Ahmedabad(AMD),Delhi(DEL),07-03-18,13:55,15:25,2500,,,10,90
IndiGo,349,Ahmedabad(AMD),Delhi(DEL),08-03-18,13:55,15:25,2500,,,10,90
IndiGo,349,Ahmedabad(AMD),Delhi(DEL),09-03-18,13:55,15:25,2500,,,10,90
IndiGo,349,Ahmedabad(AMD),Delhi(DEL),10-03-18,13:55,15:25,2500,,,10,90
IndiGo,349,Ahmedabad(AMD),Delhi(DEL),11-03-18,13:55,15:25,2500,,,10,90
IndiGo,349,Ahmedabad(AMD),Delhi(DEL),12-03-18,13:55,15:25,2500,,,10,90
