flight_name,flight_number,flight_source,flight_destination,flight_departure,flight_departure_time,flight_arrival,flight_price,flight_pnr_no,flight_via,sold,seat
SpiceJet,85,Ahmedabad(AMD),Bangkok(BKK),25-02-2018,18:30,00:40,15400,1598760,,0,50
SpiceJet,653,Delhi(DEL),Srinagar(SXR),30-06-2018,09:50,11:30,7500,1269850,,20,60
GoAir,388,Jaipur(JAI),Bombay(BOM),13-02-2018,08:10,09:55,5000,1369456,,15,30
