id,flight_name,flight_number,flight_source,flight_destination,flight_departure_date,flight_departure_time,flight_arrival_time,return_flight_source,return_flight_destination,return_flight_name,return_flight_number,return_departure_date,return_departure_time,return_arrival_time,flight_price,flight_pnr_no,flight_pnr_no2,flight_via,sold,seat
1,GoAir,286,Delhi(DEL),Goa(GOI),11-02-18,10:40,13:35,Goa(GOI),Delhi(DEL),GoAir,285,15-02-18,17:30,20:15,11500,123,789,,9,100
2,GoAir,286,Delhi(DEL),Goa(GOI),14-02-18,10:40,13:35,Goa(GOI),Delhi(DEL),GoAir,285,17-02-18,17:30,20:15,12000,123,789,,9,100
3,GoAir,286,Delhi(DEL),Goa(GOI),14-02-18,10:40,13:35,Goa(GOI),Delhi(DEL),GoAir,285,18-02-18,17:30,20:15,11000,123,789,,9,100
4,GoAir,286,Delhi(DEL),Goa(GOI),16-02-18,10:40,13:35,Goa(GOI),Delhi(DEL),GoAir,285,19-02-18,17:30,20:15,12000,123,789,,9,100
5,GoAir,286,Delhi(DEL),Goa(GOI),17-02-18,10:40,13:35,Goa(GOI),Delhi(DEL),GoAir,285,20-02-18,17:30,20:15,12000,123,789,,9,100
6,GoAir,286,Delhi(DEL),Goa(GOI),22-02-18,10:40,13:35,Goa(GOI),Delhi(DEL),GoAir,285,26-02-18,17:30,20:15,11500,123,789,,9,100
7,GoAir,286,Delhi(DEL),Goa(GOI),23-02-18,10:40,13:35,Goa(GOI),Delhi(DEL),GoAir,285,27-02-18,17:30,20:15,11500,123,789,,9,100
8,GoAir,286,Delhi(DEL),Goa(GOI),24-02-18,10:40,13:35,Goa(GOI),Delhi(DEL),GoAir,285,27-02-18,17:30,20:15,11000,123,789,,9,100
9,GoAir,286,Delhi(DEL),Goa(GOI),02-03-18,10:40,13:35,Goa(GOI),Delhi(DEL),GoAir,285,05-03-18,17:30,20:15,11500,123,789,,9,100
10,GoAir,286,Delhi(DEL),Goa(GOI),03-03-18,10:40,13:35,Goa(GOI),Delhi(DEL),GoAir,285,06-03-18,17:30,20:15,11000,123,789,,9,100
