id,flight_name,flight_number,flight_source,flight_destination,flight_departure_date,flight_departure_time,flight_arrival_time,return_flight_source,return_flight_destination,return_flight_name,return_flight_number,return_departure_date,return_departure_time,return_arrival_time,flight_price,flight_pnr_no,flight_pnr_no2,flight_via,sold,seat
1,GoAir,484,Ahmedabad(AMD),Sharjah(SHJ),26-02-2018,05:15,06:30,Sharjah(SHJ),Ahmedabad(AMD),GoAir,483,04-03-2018,00:35,04:35,18900,0,,,,
2,GoAir,484,Ahmedabad(AMD),Sharjah(SHJ),27-02-2018,05:15,06:30,Sharjah(SHJ),Ahmedabad(AMD),GoAir,483,05-03-2018,00:35,04:35,18900,0,,,,
3,GoAir,484,Ahmedabad(AMD),Sharjah(SHJ),01-03-2018,05:15,06:30,Sharjah(SHJ),Ahmedabad(AMD),GoAir,483,07-03-2018,00:35,04:35,18900,0,,,,
4,IndiGo,63,Bombay(BOM),Dubai(DXB),03-03-2018,08:30,10:30,Dubai(DXB),Bombay(BOM),IndiGo,62,08-03-2018,20:50,01:25,16500,20,,,,
5,IndiGo,63,Bombay(BOM),Dubai(DXB),05-03-2018,08:30,10:30,Dubai(DXB),Bombay(BOM),IndiGo,62,10-03-2018,20:50,01:25,16500,20,,,,
6,IndiGo,63,Bombay(BOM),Dubai(DXB),06-03-2018,08:30,10:30,Dubai(DXB),Bombay(BOM),IndiGo,62,11-03-2018,20:50,01:25,16500,20,,,,
7,IndiGo,63,Bombay(BOM),Dubai(DXB),16-05-2018,08:30,10:30,Dubai(DXB),Bombay(BOM),IndiGo,62,22-05-2018,20:50,01:25,16500,20,,,,
8,IndiGo,63,Bombay(BOM),Dubai(DXB),17-05-2018,08:30,10:30,Dubai(DXB),Bombay(BOM),IndiGo,62,23-05-2018,20:50,01:25,16500,20,,,,
9,IndiGo,63,Bombay(BOM),Dubai(DXB),18-05-2018,08:30,10:30,Dubai(DXB),Bombay(BOM),IndiGo,62,24-05-2018,20:50,01:25,16500,20,,,,
