id,flight_name_f,flight_number_f,flight_source_f,flight_destination_f,flight_departure_date_f,flight_departure_time_f,flight_arrival_time_f,flight_name_s,flight_number_s,flight_source_s,flight_destination_s,flight_departure_date_s,flight_departure_time_s,flight_arrival_time_s,flight_name_t,flight_number_t,flight_source_t,flight_destination_t,flight_departure_date_t,flight_departure_time_t,flight_arrival_time_t,flight_price,flight_pnr_no,flight_pnr_no2,flight_pnr_no3,flight_via,sold,seat
2,SpiceJet,123,Banglore(BLR),Agartala(IXA),20-02-2018,18:23,21:23,SpiceJet,123,New Delhi(DEL),Agra(AGR),25-02-2018,18:23,21:23,SpiceJet,256,Banglore(BLR),Agartala(IXA),23-02-2018,18:23,03:23,200000,256,123,,,0,10
3,SpiceJet,123,Delhi(DEL),Agra(AGR),23-02-2018,22:23,21:23,SpiceJet,123,Banglore(BLR),Agra(AGR),26-02-2018,18:23,21:23,SpiceJet,256,Delhi(DEL),Agra(AGR),25-02-2018,18:23,03:23,200000,256,123,,,0,10
