id,flight_name,flight_number,flight_source,flight_destination,flight_departure_date,flight_departure_time,flight_arrival_time,return_flight_source,return_flight_destination,return_flight_name,return_flight_number,return_departure_date,return_departure_time,return_arrival_time,flight_price,flight_pnr_no,flight_pnr_no2,flight_via,sold,seat
6,SpiceJet,1450,Ahmedabad(AMD),Agra(AGR),20-02-2018,13:21,20:21,Agra(AGR),Ahmedabad(AMD),SpiceJet,560,25-02-2018,16:21,23:21,120000,123,321,,0,50
7,SpiceJet,1450,Agartala(IXA),Agra(AGR),23-02-2018,13:21,20:21,Agra(AGR)a,Agartala(IXA),SpiceJet,560,26-02-2018,16:21,23:21,120000,123,321,,0,50
